^H:\YEAR 3\PHYSICS\PROJECT2\PROJECT2\DEBUG\APPLICATION.OBJ|H:\YEAR 3\PHYSICS\PROJECT2\PROJECT2\DEBUG\BODY.OBJ|H:\YEAR 3\PHYSICS\PROJECT2\PROJECT2\DEBUG\MAIN.OBJ|H:\YEAR 3\PHYSICS\PROJECT2\PROJECT2\DEBUG\MESH.OBJ|H:\YEAR 3\PHYSICS\PROJECT2\PROJECT2\DEBUG\OBJLOADER.OBJ|H:\YEAR 3\PHYSICS\PROJECT2\PROJECT2\DEBUG\PARTICLE.OBJ
H:\YEAR 3\PHYSICS\PROJECT2\PROJECT2\DEBUG\SIMULATION.EXE
H:\YEAR 3\PHYSICS\PROJECT2\PROJECT2\DEBUG\SIMULATION.ILK
H:\YEAR 3\PHYSICS\PROJECT2\PROJECT2\DEBUG\SIMULATION.PDB
^C:\USERS\40201757\DESKTOP\PROJECT2\DEBUG\APPLICATION.OBJ|C:\USERS\40201757\DESKTOP\PROJECT2\DEBUG\BODY.OBJ|C:\USERS\40201757\DESKTOP\PROJECT2\DEBUG\MAIN.OBJ|C:\USERS\40201757\DESKTOP\PROJECT2\DEBUG\MESH.OBJ|C:\USERS\40201757\DESKTOP\PROJECT2\DEBUG\OBJLOADER.OBJ|C:\USERS\40201757\DESKTOP\PROJECT2\DEBUG\PARTICLE.OBJ
C:\USERS\40201757\DESKTOP\PROJECT2\DEBUG\SIMULATION.EXE
C:\USERS\40201757\DESKTOP\PROJECT2\DEBUG\SIMULATION.ILK
C:\USERS\40201757\DESKTOP\PROJECT2\DEBUG\SIMULATION.PDB
^C:\USERS\40201757\DESKTOP\40201757\SOURCE CODE\DEBUG\APPLICATION.OBJ|C:\USERS\40201757\DESKTOP\40201757\SOURCE CODE\DEBUG\BODY.OBJ|C:\USERS\40201757\DESKTOP\40201757\SOURCE CODE\DEBUG\MAIN.OBJ|C:\USERS\40201757\DESKTOP\40201757\SOURCE CODE\DEBUG\MESH.OBJ|C:\USERS\40201757\DESKTOP\40201757\SOURCE CODE\DEBUG\OBJLOADER.OBJ|C:\USERS\40201757\DESKTOP\40201757\SOURCE CODE\DEBUG\PARTICLE.OBJ
C:\USERS\40201757\DESKTOP\40201757\SOURCE CODE\DEBUG\SIMULATION.EXE
C:\USERS\40201757\DESKTOP\40201757\SOURCE CODE\DEBUG\SIMULATION.ILK
C:\USERS\40201757\DESKTOP\40201757\SOURCE CODE\DEBUG\SIMULATION.PDB
